hw4-exercise1.knit
…
Elderly cloudbuddies

Future investigations may choose to focus on the elderly population
of cloudbuddies (those 70 days or older). The table below shows the
subset of cloudbuddies who meet this criterion.

cb_data %>% 
  filter(Age_in_days >= 70) %>% 
  arrange(desc(Age_in_days))

## # A tibble: 301 × 6
##    Cloudbuddy Observer Age_in_days Volume Weight `Phase (color)`
##    <chr>      <chr>          <dbl>  <dbl>  <dbl> <chr>          
##  1 cbID-003   raID-01           91 0.0840  0.267 6-red          
##  2 cbID-004   raID-01           91 0.103   0.703 6-red          
##  3 cbID-005   raID-01           91 0.0991  0.948 6-red          
##  4 cbID-006   raID-01           91 0.0909  0.193 6-red          
##  5 cbID-007   raID-01           91 0.0776  0.233 6-red          
##  6 cbID-008   raID-01           91 0.0799  1.15  6-red          
##  7 cbID-010   raID-01           91 0.106   0.881 6-red          
##  8 cbID-013   raID-01           91 0.0736  0.124 6-red          
##  9 cbID-015   raID-01           91 0.0578  0.458 6-red          
## 10 cbID-017   raID-02           91 0.112   0.418 6-red          
## # ℹ 291 more rows

# make this table interactive
cb_data %>% 
  filter(Age_in_days >= 70) %>% 
  arrange(desc(Age_in_days))

## # A tibble: 301 × 6
##    Cloudbuddy Observer Age_in_days Volume Weight `Phase (color)`
##    <chr>      <chr>          <dbl>  <dbl>  <dbl> <chr>          
##  1 cbID-003   raID-01           91 0.0840  0.267 6-red          
##  2 cbID-004   raID-01           91 0.103   0.703 6-red          
##  3 cbID-005   raID-01           91 0.0991  0.948 6-red          
##  4 cbID-006   raID-01           91 0.0909  0.193 6-red          
##  5 cbID-007   raID-01           91 0.0776  0.233 6-red          
##  6 cbID-008   raID-01           91 0.0799  1.15  6-red          
##  7 cbID-010   raID-01           91 0.106   0.881 6-red          
##  8 cbID-013   raID-01           91 0.0736  0.124 6-red          
##  9 cbID-015   raID-01           91 0.0578  0.458 6-red          
## 10 cbID-017   raID-02           91 0.112   0.418 6-red          
## # ℹ 291 more rows
…
